EDS-221 Day6 Tidy Data
…
Step 2: split a year column to ensure that we have a single column with year values

Step 3: drop unused columns

wb_indicators_clean <- wb_indicators_long %>% 
  separate(col = Year, 
           into = c("Year", "year_chr"),
           sep = " "
           ) %>% 
  dplyr::select(-year_chr, -`Country Code`,-`Series Code`)
wb_indicators_clean

# A tibble: 26,700 × 4
   `Country Name` `Series Name`                            Year  Indicator_value
   <chr>          <chr>                                    <chr>           <dbl>
 1 Afghanistan    Access to clean fuels and technologies … 2001             9.51
 2 Afghanistan    Access to clean fuels and technologies … 2002            10.4 
 3 Afghanistan    Access to clean fuels and technologies … 2003            11.5 
 4 Afghanistan    Access to clean fuels and technologies … 2004            12.4 
 5 Afghanistan    Access to clean fuels and technologies … 2005            13.5 
 6 Afghanistan    Access to clean fuels and technologies … 2006            14.8 
 7 Afghanistan    Access to clean fuels and technologies … 2007            16.0 
 8 Afghanistan    Access to clean fuels and technologies … 2008            17.4 
 9 Afghanistan    Access to clean fuels and technologies … 2009            18.8 
10 Afghanistan    Access to clean fuels and technologies … 2010            20.7 
# ℹ 26,690 more rows
…
